info face="Endless Boss Battle" size=8 unicode=1 bold=0 italic=0 smooth=0 spacing=0,0
common lineHeight=11 base=9 scaleW=128 scaleH=128 pages=1
page id=0 file="bbattle.png"
char id=32 x=1 y=9 width=2 height=2 xoffset=-1 yoffset=8 xadvance=2 page=0
char id=33 x=4 y=1 width=6 height=10 xoffset=-1 yoffset=0 xadvance=5 page=0
char id=34 x=11 y=1 width=7 height=5 xoffset=-1 yoffset=0 xadvance=6 page=0
char id=35 x=19 y=2 width=8 height=9 xoffset=-1 yoffset=1 xadvance=7 page=0
char id=36 x=28 y=1 width=8 height=10 xoffset=-1 yoffset=0 xadvance=7 page=0
char id=37 x=37 y=1 width=8 height=10 xoffset=-1 yoffset=0 xadvance=7 page=0
char id=38 x=46 y=2 width=8 height=9 xoffset=-1 yoffset=1 xadvance=7 page=0
char id=39 x=55 y=1 width=4 height=5 xoffset=-1 yoffset=0 xadvance=3 page=0
char id=40 x=60 y=1 width=5 height=10 xoffset=-1 yoffset=0 xadvance=4 page=0
char id=41 x=66 y=1 width=5 height=10 xoffset=-1 yoffset=0 xadvance=4 page=0
char id=42 x=72 y=1 width=7 height=6 xoffset=-1 yoffset=0 xadvance=6 page=0
char id=43 x=80 y=3 width=8 height=8 xoffset=-1 yoffset=2 xadvance=7 page=0
char id=44 x=89 y=6 width=4 height=5 xoffset=-1 yoffset=5 xadvance=3 page=0
char id=45 x=94 y=4 width=8 height=4 xoffset=-1 yoffset=3 xadvance=7 page=0
char id=46 x=103 y=7 width=4 height=4 xoffset=-1 yoffset=6 xadvance=3 page=0
char id=47 x=108 y=1 width=6 height=10 xoffset=-1 yoffset=0 xadvance=5 page=0
char id=48 x=115 y=1 width=8 height=10 xoffset=-1 yoffset=0 xadvance=7 page=0
char id=49 x=0 y=88 width=8 height=10 xoffset=-1 yoffset=0 xadvance=7 page=0
char id=50 x=7 y=12 width=8 height=10 xoffset=-1 yoffset=0 xadvance=7 page=0
char id=51 x=16 y=12 width=8 height=10 xoffset=-1 yoffset=0 xadvance=7 page=0
char id=52 x=25 y=12 width=8 height=10 xoffset=-1 yoffset=0 xadvance=7 page=0
char id=53 x=34 y=12 width=8 height=10 xoffset=-1 yoffset=0 xadvance=7 page=0
char id=54 x=43 y=12 width=8 height=10 xoffset=-1 yoffset=0 xadvance=7 page=0
char id=55 x=52 y=12 width=8 height=10 xoffset=-1 yoffset=0 xadvance=7 page=0
char id=56 x=61 y=12 width=8 height=10 xoffset=-1 yoffset=0 xadvance=7 page=0
char id=57 x=70 y=12 width=8 height=10 xoffset=-1 yoffset=0 xadvance=7 page=0
char id=58 x=79 y=13 width=4 height=9 xoffset=-1 yoffset=1 xadvance=3 page=0
char id=59 x=84 y=13 width=4 height=9 xoffset=-1 yoffset=1 xadvance=3 page=0
char id=60 x=89 y=12 width=7 height=10 xoffset=-1 yoffset=0 xadvance=6 page=0
char id=61 x=97 y=14 width=8 height=7 xoffset=-1 yoffset=2 xadvance=7 page=0
char id=62 x=106 y=12 width=7 height=10 xoffset=-1 yoffset=0 xadvance=6 page=0
char id=63 x=114 y=12 width=8 height=10 xoffset=-1 yoffset=0 xadvance=7 page=0
char id=64 x=1 y=23 width=8 height=10 xoffset=-1 yoffset=0 xadvance=7 page=0
char id=65 x=10 y=23 width=8 height=10 xoffset=-1 yoffset=0 xadvance=7 page=0
char id=66 x=19 y=23 width=8 height=10 xoffset=-1 yoffset=0 xadvance=7 page=0
char id=67 x=28 y=23 width=8 height=10 xoffset=-1 yoffset=0 xadvance=7 page=0
char id=68 x=37 y=23 width=8 height=10 xoffset=-1 yoffset=0 xadvance=7 page=0
char id=69 x=46 y=23 width=8 height=10 xoffset=-1 yoffset=0 xadvance=7 page=0
char id=70 x=55 y=23 width=8 height=10 xoffset=-1 yoffset=0 xadvance=7 page=0
char id=71 x=64 y=23 width=8 height=10 xoffset=-1 yoffset=0 xadvance=7 page=0
char id=72 x=73 y=23 width=8 height=10 xoffset=-1 yoffset=0 xadvance=7 page=0
char id=73 x=82 y=23 width=4 height=10 xoffset=-1 yoffset=0 xadvance=3 page=0
char id=74 x=87 y=23 width=6 height=10 xoffset=-1 yoffset=0 xadvance=5 page=0
char id=75 x=94 y=23 width=8 height=10 xoffset=-1 yoffset=0 xadvance=7 page=0
char id=76 x=103 y=23 width=7 height=10 xoffset=-1 yoffset=0 xadvance=6 page=0
char id=77 x=111 y=23 width=9 height=10 xoffset=-1 yoffset=0 xadvance=8 page=0
char id=78 x=1 y=34 width=8 height=10 xoffset=-1 yoffset=0 xadvance=7 page=0
char id=79 x=10 y=34 width=8 height=10 xoffset=-1 yoffset=0 xadvance=7 page=0
char id=80 x=19 y=34 width=8 height=10 xoffset=-1 yoffset=0 xadvance=7 page=0
char id=81 x=28 y=34 width=8 height=10 xoffset=-1 yoffset=0 xadvance=7 page=0
char id=82 x=37 y=34 width=8 height=10 xoffset=-1 yoffset=0 xadvance=7 page=0
char id=83 x=46 y=34 width=8 height=10 xoffset=-1 yoffset=0 xadvance=7 page=0
char id=84 x=55 y=34 width=8 height=10 xoffset=-1 yoffset=0 xadvance=7 page=0
char id=85 x=64 y=34 width=8 height=10 xoffset=-1 yoffset=0 xadvance=7 page=0
char id=86 x=73 y=34 width=8 height=10 xoffset=-1 yoffset=0 xadvance=7 page=0
char id=87 x=82 y=34 width=9 height=10 xoffset=-1 yoffset=0 xadvance=8 page=0
char id=88 x=92 y=34 width=8 height=10 xoffset=-1 yoffset=0 xadvance=7 page=0
char id=89 x=101 y=34 width=8 height=10 xoffset=-1 yoffset=0 xadvance=7 page=0
char id=90 x=110 y=34 width=8 height=10 xoffset=-1 yoffset=0 xadvance=7 page=0
char id=91 x=119 y=34 width=6 height=10 xoffset=-1 yoffset=0 xadvance=5 page=0
char id=92 x=1 y=45 width=6 height=10 xoffset=-1 yoffset=0 xadvance=5 page=0
char id=93 x=8 y=45 width=6 height=10 xoffset=-1 yoffset=0 xadvance=5 page=0
char id=94 x=15 y=45 width=8 height=5 xoffset=-1 yoffset=0 xadvance=7 page=0
char id=95 x=24 y=51 width=8 height=4 xoffset=-1 yoffset=6 xadvance=7 page=0
char id=96 x=33 y=45 width=5 height=5 xoffset=-1 yoffset=0 xadvance=4 page=0
char id=97 x=39 y=47 width=8 height=8 xoffset=-1 yoffset=2 xadvance=7 page=0
char id=98 x=48 y=45 width=8 height=10 xoffset=-1 yoffset=0 xadvance=7 page=0
char id=99 x=57 y=47 width=8 height=8 xoffset=-1 yoffset=2 xadvance=7 page=0
char id=100 x=66 y=45 width=8 height=10 xoffset=-1 yoffset=0 xadvance=7 page=0
char id=101 x=75 y=47 width=8 height=8 xoffset=-1 yoffset=2 xadvance=7 page=0
char id=102 x=84 y=45 width=8 height=10 xoffset=-1 yoffset=0 xadvance=7 page=0
char id=103 x=93 y=47 width=8 height=11 xoffset=-1 yoffset=2 xadvance=7 page=0
char id=104 x=102 y=45 width=8 height=10 xoffset=-1 yoffset=0 xadvance=7 page=0
char id=105 x=111 y=45 width=4 height=10 xoffset=-1 yoffset=0 xadvance=3 page=0
char id=106 x=116 y=45 width=6 height=13 xoffset=-3 yoffset=0 xadvance=3 page=0
char id=107 x=1 y=59 width=8 height=10 xoffset=-1 yoffset=0 xadvance=7 page=0
char id=108 x=10 y=59 width=4 height=10 xoffset=-1 yoffset=0 xadvance=3 page=0
char id=109 x=15 y=61 width=10 height=8 xoffset=-1 yoffset=2 xadvance=9 page=0
char id=110 x=26 y=61 width=8 height=8 xoffset=-1 yoffset=2 xadvance=7 page=0
char id=111 x=35 y=61 width=8 height=8 xoffset=-1 yoffset=2 xadvance=7 page=0
char id=112 x=44 y=61 width=8 height=10 xoffset=-1 yoffset=2 xadvance=7 page=0
char id=113 x=53 y=61 width=8 height=10 xoffset=-1 yoffset=2 xadvance=7 page=0
char id=114 x=62 y=61 width=6 height=8 xoffset=-1 yoffset=2 xadvance=5 page=0
char id=115 x=69 y=61 width=8 height=8 xoffset=-1 yoffset=2 xadvance=7 page=0
char id=116 x=78 y=59 width=8 height=10 xoffset=-1 yoffset=0 xadvance=7 page=0
char id=117 x=87 y=61 width=8 height=8 xoffset=-1 yoffset=2 xadvance=7 page=0
char id=118 x=96 y=61 width=8 height=8 xoffset=-1 yoffset=2 xadvance=7 page=0
char id=119 x=105 y=61 width=10 height=8 xoffset=-1 yoffset=2 xadvance=9 page=0
char id=120 x=116 y=61 width=8 height=8 xoffset=-1 yoffset=2 xadvance=7 page=0
char id=121 x=1 y=74 width=8 height=11 xoffset=-1 yoffset=2 xadvance=7 page=0
char id=122 x=10 y=74 width=8 height=8 xoffset=-1 yoffset=2 xadvance=7 page=0
char id=123 x=19 y=72 width=6 height=10 xoffset=-1 yoffset=0 xadvance=5 page=0
char id=124 x=26 y=72 width=4 height=10 xoffset=-1 yoffset=0 xadvance=3 page=0
char id=125 x=31 y=72 width=6 height=10 xoffset=-1 yoffset=0 xadvance=5 page=0
char id=126 x=38 y=74 width=8 height=6 xoffset=-1 yoffset=2 xadvance=7 page=0
char id=8592 x=48 y=73 width=8 height=8 xoffset=-1 yoffset=2 xadvance=9 page=0
char id=8593 x=57 y=73 width=8 height=8 xoffset=-1 yoffset=2 xadvance=9 page=0
char id=8594 x=66 y=73 width=8 height=8 xoffset=-1 yoffset=2 xadvance=9 page=0
char id=8595 x=75 y=73 width=8 height=8 xoffset=-1 yoffset=2 xadvance=9 page=0
