info face="Suez One" size=14 bold=0 italic=0 smooth=0 spacing=0,0
common lineHeight=25 base=20 scaleW=256 scaleH=256 pages=1
page id=0 file="suez.png"
char id=32 x=1  y=16 width=4 height=4 xoffset=-2 yoffset=18 xadvance=5 page=0
char id=33 x=6  y=2 width=8 height=19 xoffset=-1 yoffset=4 xadvance=7 page=0
char id=34 x=15 y=3 width=11 height=10 xoffset=-1 yoffset=5 xadvance=10 page=0
char id=35 x=27 y=7 width=14 height=12 xoffset=-1 yoffset=9 xadvance=13 page=0
char id=36 x=42 y=3 width=13 height=20 xoffset=-1 yoffset=5 xadvance=12 page=0
char id=37 x=56 y=5 width=14 height=16 xoffset=-1 yoffset=7 xadvance=13 page=0
char id=38 x=71 y=3 width=19 height=17 xoffset=-2 yoffset=5 xadvance=16 page=0
char id=39 x=91 y=3 width=7 height=10 xoffset=-1 yoffset=5 xadvance=6 page=0
char id=40 x=99 y=1 width=9 height=23 xoffset=-1 yoffset=3 xadvance=7 page=0
char id=41 x=109 y=1 width=9 height=23 xoffset=-1 yoffset=3 xadvance=7 page=0
char id=42 x=119 y=1 width=11 height=11 xoffset=-1 yoffset=3 xadvance=10 page=0
char id=43 x=131 y=6 width=12 height=13 xoffset=0 yoffset=8 xadvance=13 page=0
char id=44 x=144 y=13 width=8 height=10 xoffset=-1 yoffset=15 xadvance=6 page=0
char id=45 x=153 y=9 width=9 height=6 xoffset=0 yoffset=11 xadvance=10 page=0
char id=46 x=163 y=13 width=8 height=8 xoffset=-1 yoffset=15 xadvance=7 page=0
char id=47 x=172 y=1 width=10 height=20 xoffset=-2 yoffset=3 xadvance=7 page=0
char id=48 x=183 y=5 width=15 height=15 xoffset=-1 yoffset=7 xadvance=14 page=0
char id=49 x=199 y=5 width=12 height=15 xoffset=-2 yoffset=7 xadvance=9 page=0
char id=50 x=212 y=5 width=12 height=15 xoffset=-2 yoffset=7 xadvance=9 page=0
char id=51 x=225 y=5 width=13 height=18 xoffset=-2 yoffset=7 xadvance=10 page=0
char id=52 x=239 y=5 width=15 height=18 xoffset=-2 yoffset=7 xadvance=13 page=0
char id=53 x=1 y=28 width=12 height=18 xoffset=-1 yoffset=7 xadvance=11 page=0
char id=54 x=14 y=26 width=13 height=17 xoffset=-1 yoffset=5 xadvance=12 page=0
char id=55 x=28 y=29 width=12 height=17 xoffset=-1 yoffset=8 xadvance=11 page=0
char id=56 x=41 y=26 width=14 height=17 xoffset=-1 yoffset=5 xadvance=12 page=0
char id=57 x=56 y=28 width=13 height=18 xoffset=-1 yoffset=7 xadvance=12 page=0
char id=58 x=70 y=29 width=8 height=15 xoffset=-1 yoffset=8 xadvance=8 page=0
char id=59 x=79 y=29 width=8 height=17 xoffset=-1 yoffset=8 xadvance=6 page=0
char id=60 x=88 y=29 width=13 height=14 xoffset=0 yoffset=8 xadvance=14 page=0
char id=61 x=102 y=31 width=12 height=10 xoffset=0 yoffset=10 xadvance=13 page=0
char id=62 x=115 y=29 width=13 height=14 xoffset=0 yoffset=8 xadvance=14 page=0
char id=63 x=129 y=25 width=11 height=19 xoffset=-2 yoffset=4 xadvance=8 page=0
char id=64 x=141 y=27 width=19 height=18 xoffset=-1 yoffset=6 xadvance=18 page=0
char id=65 x=161 y=26 width=18 height=17 xoffset=-2 yoffset=5 xadvance=15 page=0
char id=66 x=180 y=26 width=15 height=17 xoffset=-1 yoffset=5 xadvance=14 page=0
char id=67 x=196 y=26 width=16 height=17 xoffset=-2 yoffset=5 xadvance=14 page=0
char id=68 x=213 y=26 width=17 height=17 xoffset=-1 yoffset=5 xadvance=15 page=0
char id=69 x=231 y=26 width=16 height=17 xoffset=-2 yoffset=5 xadvance=13 page=0
char id=70 x=1 y=47 width=15 height=17 xoffset=-2 yoffset=5 xadvance=13 page=0
char id=71 x=17 y=47 width=16 height=17 xoffset=-2 yoffset=5 xadvance=14 page=0
char id=72 x=34 y=47 width=18 height=17 xoffset=-2 yoffset=5 xadvance=16 page=0
char id=73 x=53 y=47 width=10 height=17 xoffset=-1 yoffset=5 xadvance=9 page=0
char id=74 x=64 y=47 width=11 height=19 xoffset=-2 yoffset=5 xadvance=8 page=0
char id=75 x=76 y=47 width=17 height=17 xoffset=-2 yoffset=5 xadvance=15 page=0
char id=76 x=94 y=47 width=15 height=17 xoffset=-2 yoffset=5 xadvance=12 page=0
char id=77 x=110 y=47 width=22 height=17 xoffset=-2 yoffset=5 xadvance=20 page=0
char id=78 x=133 y=47 width=17 height=18 xoffset=-1 yoffset=5 xadvance=16 page=0
char id=79 x=151 y=47 width=18 height=17 xoffset=-2 yoffset=5 xadvance=15 page=0
char id=80 x=170 y=47 width=15 height=17 xoffset=-1 yoffset=5 xadvance=14 page=0
char id=81 x=186 y=47 width=18 height=18 xoffset=-2 yoffset=5 xadvance=15 page=0
char id=82 x=205 y=47 width=16 height=17 xoffset=-1 yoffset=5 xadvance=14 page=0
char id=83 x=222 y=47 width=14 height=17 xoffset=-1 yoffset=5 xadvance=12 page=0
char id=84 x=237 y=47 width=16 height=17 xoffset=-1 yoffset=5 xadvance=15 page=0
char id=85 x=1 y=69 width=18 height=17 xoffset=-2 yoffset=5 xadvance=16 page=0
char id=86 x=20 y=69 width=18 height=17 xoffset=-2 yoffset=5 xadvance=15 page=0
char id=87 x=39 y=69 width=25 height=17 xoffset=-2 yoffset=5 xadvance=22 page=0
char id=88 x=65 y=69 width=17 height=17 xoffset=-2 yoffset=5 xadvance=15 page=0
char id=89 x=83 y=69 width=17 height=17 xoffset=-2 yoffset=5 xadvance=14 page=0
char id=90 x=101 y=69 width=15 height=17 xoffset=-1 yoffset=5 xadvance=13 page=0
char id=91 x=117 y=67 width=8 height=23 xoffset=-1 yoffset=3 xadvance=7 page=0
char id=92 x=126 y=67 width=10 height=20 xoffset=-2 yoffset=3 xadvance=7 page=0
char id=93 x=137 y=67 width=8 height=23 xoffset=-1 yoffset=3 xadvance=7 page=0
char id=94 x=146 y=69 width=14 height=12 xoffset=-1 yoffset=5 xadvance=13 page=0
char id=95 x=161 y=83 width=14 height=6 xoffset=-2 yoffset=19 xadvance=11 page=0
char id=96 x=176 y=67 width=10 height=8 xoffset=0 yoffset=3 xadvance=12 page=0
char id=97 x=187 y=72 width=15 height=14 xoffset=-2 yoffset=8 xadvance=12 page=0
char id=98 x=203 y=67 width=15 height=19 xoffset=-2 yoffset=3 xadvance=12 page=0
char id=99 x=219 y=72 width=13 height=14 xoffset=-2 yoffset=8 xadvance=11 page=0
char id=100 x=233 y=67 width=15 height=19 xoffset=-2 yoffset=3 xadvance=12 page=0
char id=101 x=1 y=96 width=14 height=14 xoffset=-2 yoffset=8 xadvance=11 page=0
char id=102 x=16 y=91 width=12 height=19 xoffset=-2 yoffset=3 xadvance=9 page=0
char id=103 x=29 y=95 width=15 height=19 xoffset=-2 yoffset=7 xadvance=12 page=0
char id=104 x=45 y=91 width=17 height=19 xoffset=-2 yoffset=3 xadvance=14 page=0
char id=105 x=63 y=91 width=10 height=19 xoffset=-2 yoffset=3 xadvance=8 page=0
char id=106 x=74 y=91 width=9 height=23 xoffset=-2 yoffset=3 xadvance=7 page=0
char id=107 x=84 y=91 width=16 height=19 xoffset=-2 yoffset=3 xadvance=13 page=0
char id=108 x=101 y=91 width=10 height=19 xoffset=-2 yoffset=3 xadvance=8 page=0
char id=109 x=112 y=96 width=23 height=14 xoffset=-2 yoffset=8 xadvance=20 page=0
char id=110 x=136 y=96 width=17 height=14 xoffset=-2 yoffset=8 xadvance=14 page=0
char id=111 x=154 y=96 width=14 height=14 xoffset=-2 yoffset=8 xadvance=12 page=0
char id=112 x=169 y=96 width=15 height=18 xoffset=-2 yoffset=8 xadvance=12 page=0
char id=113 x=185 y=96 width=15 height=18 xoffset=-2 yoffset=8 xadvance=12 page=0
char id=114 x=201 y=96 width=12 height=14 xoffset=-2 yoffset=8 xadvance=9 page=0
char id=115 x=214 y=96 width=12 height=14 xoffset=-1 yoffset=8 xadvance=10 page=0
char id=116 x=227 y=93 width=12 height=17 xoffset=-2 yoffset=5 xadvance=9 page=0
char id=117 x=1 y=120 width=16 height=14 xoffset=-2 yoffset=8 xadvance=13 page=0
char id=118 x=18 y=120 width=15 height=14 xoffset=-3 yoffset=8 xadvance=11 page=0
char id=119 x=34 y=120 width=20 height=14 xoffset=-3 yoffset=8 xadvance=17 page=0
char id=120 x=55 y=120 width=15 height=14 xoffset=-2 yoffset=8 xadvance=12 page=0
char id=121 x=71 y=120 width=15 height=18 xoffset=-3 yoffset=8 xadvance=11 page=0
char id=122 x=87 y=120 width=14 height=14 xoffset=-2 yoffset=8 xadvance=11 page=0
char id=123 x=102 y=115 width=10 height=23 xoffset=-2 yoffset=3 xadvance=8 page=0
char id=124 x=113 y=115 width=6 height=23 xoffset=0 yoffset=3 xadvance=7 page=0
char id=125 x=120 y=115 width=10 height=23 xoffset=-1 yoffset=3 xadvance=8 page=0
